[
  {
    "name": "ABC1",
    "rating": 1,
    "releaseDate": "2020-09-08"
  },
  {
    "name": "XYZ2",
    "rating": 5,
    "releaseDate": "2020-09-08"
  },
  {
    "name": "XYZ3",
    "rating": 5,
    "releaseDate": "2020-09-08"
  },
  {
    "name": "XYZ4",
    "rating": 5,
    "releaseDate": "2020-09-08"
  },
  {
    "name": "XYZ",
    "rating": 5,
    "releaseDate": "2020-09-08"
  },
  {
    "name": "XYZ5",
    "rating": 5,
    "releaseDate": "2020-09-08"
  },
  {
    "name": "XYZ6",
    "rating": 5,
    "releaseDate": "2020-09-08"
  },
  {
    "name": "XYZ7",
    "rating": 5,
    "releaseDate": "2020-09-08"
  },
  {
    "name": "XYZ8",
    "rating": 5,
    "releaseDate": "2020-09-08"
  },
  {
    "name": "XYZ9",
    "rating": 5,
    "releaseDate": "2020-09-08"
  },
  {
    "name": "XYZ10",
    "rating": 5,
    "releaseDate": "2020-09-08"
  },
  {
    "name": "XYZ11",
    "rating": 5,
    "releaseDate": "2020-09-08"
  },
  {
    "name": "XYZ12",
    "rating": 5,
    "releaseDate": "2020-09-08"
  },
  {
    "name": "XYZ13",
    "rating": 5,
    "releaseDate": "2020-09-08"
  },
  {
    "name": "XYZ14",
    "rating": 5,
    "releaseDate": "2020-09-08"
  },
  {
    "name": "XYZ15",
    "rating": 5,
    "releaseDate": "2020-09-08"
  },
  {
    "name": "XYZ16",
    "rating": 5,
    "releaseDate": "2020-09-08"
  },
  {
    "name": "XYZ17",
    "rating": 5,
    "releaseDate": "2020-09-08"
  },
  {
    "name": "XYZ18",
    "rating": 5,
    "releaseDate": "2020-09-08"
  },
  {
    "name": "XYZ19",
    "rating": 5,
    "releaseDate": "2020-09-08"
  }
]
